…
<!-- end list -->

``` r
df_antibiotics_long <- df_antibiotics %>%
  pivot_longer(
    cols = starts_with("pen") | starts_with("strep") | starts_with ("neo"),
    names_to = "antibiotic",
    values_to = "MIC"
  )

df_antibiotics_long
```

    ## # A tibble: 48 x 4
    ##    bacteria              gram     antibiotic       MIC
    ##    <chr>                 <chr>    <chr>          <dbl>
    ##  1 Aerobacter aerogenes  negative penicillin   870    
    ##  2 Aerobacter aerogenes  negative streptomycin   1    
    ##  3 Aerobacter aerogenes  negative neomycin       1.6  
    ##  4 Brucella abortus      negative penicillin     1    
    ##  5 Brucella abortus      negative streptomycin   2    
    ##  6 Brucella abortus      negative neomycin       0.02 
    ##  7 Bacillus anthracis    positive penicillin     0.001
    ##  8 Bacillus anthracis    positive streptomycin   0.01 
    ##  9 Bacillus anthracis    positive neomycin       0.007
    ## 10 Diplococcus pneumonia positive penicillin     0.005
    ## # … with 38 more rows
…
