…
    ## Parsed with column specification:
    ## cols(
    ##   id = col_character(),
    ##   `Geographic Area Name` = col_character(),
    ##   `Estimate!!Total` = col_double(),
    ##   `Margin of Error!!Total` = col_character()
    ## )

``` r
df_pop
```

    ## # A tibble: 3,221 x 4
    ##    id            `Geographic Area Name`  `Estimate!!Tota… `Margin of Error!!Tot…
    ##    <chr>         <chr>                              <dbl> <chr>                 
    ##  1 0500000US010… Autauga County, Alabama            55200 *****                 
    ##  2 0500000US010… Baldwin County, Alabama           208107 *****                 
    ##  3 0500000US010… Barbour County, Alabama            25782 *****                 
    ##  4 0500000US010… Bibb County, Alabama               22527 *****                 
    ##  5 0500000US010… Blount County, Alabama             57645 *****                 
    ##  6 0500000US010… Bullock County, Alabama            10352 *****                 
    ##  7 0500000US010… Butler County, Alabama             20025 *****                 
    ##  8 0500000US010… Calhoun County, Alabama           115098 *****                 
    ##  9 0500000US010… Chambers County, Alaba…            33826 *****                 
    ## 10 0500000US010… Cherokee County, Alaba…            25853 *****                 
    ## # … with 3,211 more rows
…
To join these datasets, we’ll need to use [FIPS county
codes](https://en.wikipedia.org/wiki/FIPS_county_code).\[2\] The last
`5` digits of the `id` column in `df_pop` is the FIPS county code, while
the NYT data `df_covid` already contains the `fips`.

**q3** Process the `id` column of `df_pop` to create a `fips` column.

``` r
## TASK: Create a `fips` column by extracting the county code
df_q3 <- df_pop %>% mutate(fips = str_sub(id, -5))

df_q3
```

    ## # A tibble: 3,221 x 5
    ##    id          `Geographic Area Nam… `Estimate!!Tota… `Margin of Error!!T… fips 
    ##    <chr>       <chr>                            <dbl> <chr>                <chr>
    ##  1 0500000US0… Autauga County, Alab…            55200 *****                01001
    ##  2 0500000US0… Baldwin County, Alab…           208107 *****                01003
    ##  3 0500000US0… Barbour County, Alab…            25782 *****                01005
    ##  4 0500000US0… Bibb County, Alabama             22527 *****                01007
    ##  5 0500000US0… Blount County, Alaba…            57645 *****                01009
    ##  6 0500000US0… Bullock County, Alab…            10352 *****                01011
    ##  7 0500000US0… Butler County, Alaba…            20025 *****                01013
    ##  8 0500000US0… Calhoun County, Alab…           115098 *****                01015
    ##  9 0500000US0… Chambers County, Ala…            33826 *****                01017
    ## 10 0500000US0… Cherokee County, Ala…            25853 *****                01019
    ## # … with 3,211 more rows
…
